BMI 713/BMIF 313qc Class 7: Data Visualization / 25 September 2018
…
cat("AGELTTWO   2   120 2 YEARS AND OLDER")

## AGELTTWO 2   120 2 YEARS AND OLDER

Since we are not specifically interested in children under two, we will ignore that column for now.

Mapping Variables using match

We will now map the codes for a couple of columns to the neiss tibble to get data that doesnt require a lookup table. Lets start with the Body Part column. First, we filter the tibble for rows containing codes related to body parts.

# first we filter the body part rows from the code table
body_part_codes <- neiss_codes %>% filter(`Format name`=="BDYPT")
body_part_codes 

## # A tibble: 30 x 4
##    `Format name` `Starting value for `Ending value for `Format value la
##    <chr>                        <int>              <int> <chr>            
##  1 BDYPT                            0                  0 0 - INTERNAL     
##  2 BDYPT                           30                 30 30 - SHOULDER    
##  3 BDYPT                           31                 31 31 - UPPER TRUNK 
##  4 BDYPT                           32                 32 32 - ELBOW       
##  5 BDYPT                           33                 33 33 - LOWER ARM   
##  6 BDYPT                           34                 34 34 - WRIST       
##  7 BDYPT                           35                 35 35 - KNEE        
##  8 BDYPT                           36                 36 36 - LOWER LEG   
##  9 BDYPT                           37                 37 37 - ANKLE       
## 10 BDYPT                           38                 38 38 - PUBIC REGION
## # ... with 20 more rows

Next, we remove columns that we wont need.

body_part_codes <- body_part_codes %>% select(`Starting value for format`,`Format value label`)
body_part_codes

## # A tibble: 30 x 2
##    `Starting value for format` `Format value label`
##                          <int> <chr>               
##  1                           0 0 - INTERNAL        
##  2                          30 30 - SHOULDER       
##  3                          31 31 - UPPER TRUNK    
##  4                          32 32 - ELBOW          
##  5                          33 33 - LOWER ARM      
##  6                          34 34 - WRIST          
##  7                          35 35 - KNEE           
##  8                          36 36 - LOWER LEG      
##  9                          37 37 - ANKLE          
## 10                          38 38 - PUBIC REGION   
## # ... with 20 more rows

Then, we rename columns to make it possible to use their names without backquotes.

body_part_codes <- body_part_codes %>% rename(Code=`Starting value for format`)  %>% rename(Label=`Format value label`)
body_part_codes

## # A tibble: 30 x 2
##     Code Label            
##    <int> <chr>            
##  1     0 0 - INTERNAL     
##  2    30 30 - SHOULDER    
##  3    31 31 - UPPER TRUNK 
##  4    32 32 - ELBOW       
##  5    33 33 - LOWER ARM   
##  6    34 34 - WRIST       
##  7    35 35 - KNEE        
##  8    36 36 - LOWER LEG   
##  9    37 37 - ANKLE       
## 10    38 38 - PUBIC REGION
## # ... with 20 more rows

Finally, we convert the Label column in to a factor.

body_part_codes <- body_part_codes %>% mutate(Label=factor(Label))
body_part_codes

## # A tibble: 30 x 2
##     Code Label            
##    <int> <fct>            
##  1     0 0 - INTERNAL     
##  2    30 30 - SHOULDER    
##  3    31 31 - UPPER TRUNK 
##  4    32 32 - ELBOW       
##  5    33 33 - LOWER ARM   
##  6    34 34 - WRIST       
##  7    35 35 - KNEE        
##  8    36 36 - LOWER LEG   
##  9    37 37 - ANKLE       
## 10    38 38 - PUBIC REGION
## # ... with 20 more rows
…
